[gd_scene load_steps=2 format=2]

[sub_resource type="CircleShape2D" id=1]

custom_solver_bias = 0.0
radius = 800.0

[node name="CirclePlanet" type="StaticBody2D"]

input_pickable = false
collision_layer = 1
collision_mask = 1
constant_linear_velocity = Vector2( 0, 0 )
constant_angular_velocity = 0.0
friction = 1.0
bounce = 0.0

[node name="CollisionShape2D" type="CollisionShape2D" parent="." index="0"]

shape = SubResource( 1 )

[node name="Visuals" type="Node2D" parent="." index="1"]

[node name="Polygon2D" type="Polygon2D" parent="Visuals" index="0"]

polygon = PoolVector2Array( -1.53259, -802.994, 209.143, -779.586, 403.725, -698.144, 570.997, -567.935, 700.719, -402.125, 777.284, -208.031, 808.495, 0.694031, 780.21, 208.931, 702.182, 406.439, 572.948, 568.835, 406.163, 698.069, 210.606, 781.949, 0.418091, 806.82, -206.844, 779.023, -405.327, 700.507, -576.013, 569.81, -703.297, 402.538, -779.374, 210.394, -807.659, -1.25668, -779.374, -210.469, -698.42, -407.002, -569.674, -570.861, -402.889, -698.632, -208.307, -779.098 )
uv = PoolVector2Array(  )
color = Color( 0.00610352, 0.390625, 0.183344, 1 )
vertex_colors = PoolColorArray(  )
offset = Vector2( 0, 0 )
antialiased = false
texture = null
texture_offset = Vector2( 0, 0 )
texture_scale = Vector2( 1, 1 )
texture_rotation_degrees = 0.0
invert_enable = false
invert_border = 100.0

[node name="Polygon2D2" type="Polygon2D" parent="Visuals" index="1"]

polygon = PoolVector2Array( -324.784, -398.827, -563.62, -126.587, -560.279, 93.877, -505.163, 346.074, -291.38, 307.66, -224.573, 185.737, -179.478, 78.8453, -74.2565, 103.898, -104.32, 204.109, -22.4808, 207.449, -5.77905, 311.001, -132.713, 396.18, -174.467, 539.815, -206.201, 656.728, 34.3054, 716.855, 273.141, 631.676, 314.896, 442.945, 199.653, 152.333, 20.944, -143.289, -151.085, -365.423 )
uv = PoolVector2Array(  )
color = Color( 0, 0.0123291, 0.789063, 1 )
vertex_colors = PoolColorArray(  )
offset = Vector2( 0, 0 )
antialiased = false
texture = null
texture_offset = Vector2( 0, 0 )
texture_scale = Vector2( 1, 1 )
texture_rotation_degrees = 0.0
invert_enable = false
invert_border = 100.0

[node name="Polygon2D3" type="Polygon2D" parent="Visuals" index="2"]

polygon = PoolVector2Array( 4.24207, -659.375, -65.9055, -490.687, 40.9861, -276.903, 308.215, -253.521, 570.434, -375.444, 400.075, -609.269 )
uv = PoolVector2Array(  )
color = Color( 0, 0.0117647, 0.788235, 1 )
vertex_colors = PoolColorArray(  )
offset = Vector2( 0, 0 )
antialiased = false
texture = null
texture_offset = Vector2( 0, 0 )
texture_scale = Vector2( 1, 1 )
texture_rotation_degrees = 0.0
invert_enable = false
invert_border = 100.0

[node name="Polygon2D4" type="Polygon2D" parent="Visuals" index="3"]

position = Vector2( 252.198, 616.471 )
scale = Vector2( 1, 1.25103 )
polygon = PoolVector2Array( 171.26, -564.587, 239.738, -360.324, -50.8739, -349.644, 39.3158, -136.037, 341.619, -332.289, 400.075, -609.269 )
uv = PoolVector2Array(  )
color = Color( 0, 0.0117647, 0.788235, 1 )
vertex_colors = PoolColorArray(  )
offset = Vector2( 0, 0 )
antialiased = false
texture = null
texture_offset = Vector2( 0, 0 )
texture_scale = Vector2( 1, 1 )
texture_rotation_degrees = 0.0
invert_enable = false
invert_border = 100.0

[node name="Target1" type="Node2D" parent="." index="2"]

position = Vector2( -1.49466, -817.844 )

[node name="Target2" type="Node2D" parent="." index="3"]

position = Vector2( -825.901, 2.55875 )


