[gd_scene format=2]

[node name="MolePlanet" type="StaticBody2D"]

input_pickable = false
collision_layer = 1
collision_mask = 1
constant_linear_velocity = Vector2( 0, 0 )
constant_angular_velocity = 0.0
friction = 1.0
bounce = 0.0

[node name="CollisionPolygon2D" type="CollisionPolygon2D" parent="." index="0"]

position = Vector2( 99.9492, -65.9344 )
build_mode = 0
polygon = PoolVector2Array( -448.802, -40.9169, 120.65, 346.15, 58.1674, 548.3, -435.814, 391.726, -415.967, 427.01, -86.2452, 576.43, -86.2452, 697.017, 1.66382, 860.111, 310.647, 768.251, 601.259, 514.383, 758.256, 125.231, 677.05, -257.066, 380.05, -533.065, -97.95, -637.065, -500.95, -563.065, -840.108, -324.048, -908.585, 73.4553, -843.448, 487.66, -564.528, 759.9, -422.562, 634.636, -412.541, 582.861, -634.675, 521.064, -617.487, 305.294, -59.609, 375.286, -9.94983, 351.934, -473.356, -17.5899 )

[node name="Visuals" type="Node2D" parent="." index="1"]

position = Vector2( 99.9712, -68.1621 )

[node name="Polygon2D" type="Polygon2D" parent="Visuals" index="0"]

polygon = PoolVector2Array( -1.93176, 881.317, 326.156, 784.941, 621.434, 522.472, 779.326, 130.818, 693.203, -260.837, 391.773, -545.862, -88.0546, -646.339, -498.164, -574.57, -857.009, -338.757, -928.778, 69.3011, -857.009, 489.663, -559.68, 780.84, -414.091, 641.403, -110.611, 696.768 )
uv = PoolVector2Array(  )
color = Color( 0.324219, 0.280486, 0.238098, 1 )
vertex_colors = PoolColorArray(  )
offset = Vector2( 0, 0 )
antialiased = false
texture = null
texture_offset = Vector2( 0, 0 )
texture_scale = Vector2( 1, 1 )
texture_rotation_degrees = 0.0
invert_enable = false
invert_border = 100.0

[node name="Polygon2D2" type="Polygon2D" parent="Visuals" index="1"]

polygon = PoolVector2Array( -415.166, 638.58, -394.472, 575.51, -619.946, 507.032, -606.345, 320.615, -60.1412, 391.486, 4.20477, 355.648, -460.446, -16.6245, -443.86, -31.2197, 108.061, 351.94, 53.0319, 540.407, -446.248, 381.769, -427.875, 435.215, -108.871, 587.201, -102.901, 700.852 )
uv = PoolVector2Array(  )
color = Color( 0.179688, 0.179688, 0.179688, 1 )
vertex_colors = PoolColorArray(  )
offset = Vector2( 0, 0 )
antialiased = false
texture = null
texture_offset = Vector2( 0, 0 )
texture_scale = Vector2( 1, 1 )
texture_rotation_degrees = 0.0
invert_enable = false
invert_border = 100.0

[node name="Target1" type="Node2D" parent="." index="2"]

position = Vector2( -738.483, -435.651 )
rotation = 0.92746

[node name="Target2" type="Node2D" parent="." index="3"]

position = Vector2( -94.0601, 99.1178 )
rotation = 0.59998


