[gd_scene format=2]

[node name="WaterPlanet" type="StaticBody2D"]

input_pickable = false
collision_layer = 1
collision_mask = 1
constant_linear_velocity = Vector2( 0, 0 )
constant_angular_velocity = 0.0
friction = 1.0
bounce = 0.0

[node name="CollisionPolygon2D" type="CollisionPolygon2D" parent="." index="0"]

build_mode = 0
polygon = PoolVector2Array( -607, -1093, 579.999, -1090, 551.999, -1038, 353.999, -920, 507.999, -883, 601.999, -913, 562.999, -873, 432.999, -845, 587.999, -774, 714.998, -808, 617.999, -751, 737.998, -630, 839.998, -646, 744.998, -601.001, 840.998, -497.001, 908.998, -491.001, 832.998, -471.001, 892.998, -366.001, 978.998, -323.001, 898.998, -341.001, 958.998, -194.001, 1034, -128.001, 960.998, -159.001, 974.998, -7.00098, 1032, 48.999, 965.998, 11.999, 970.998, 145.999, 998.998, 199.999, 934.998, 154.999, 930.998, 313.999, 952.998, 390.999, 911.998, 333.999, 846.998, 499.999, 857.998, 580.999, 818.998, 495.999, 721.998, 672.998, 720.416, 786.759, 696.951, 674.849, 554.357, 813.834, 533.599, 894.156, 539.916, 799.394, 373.857, 904.986, 341.367, 989.821, 352.197, 898.669, 143.719, 975.381, -111.688, 1313.82, -469.98, 1349.02, -664.018, 1256.06, -367.998, 1283.13, -24.1456, 1143.25, -88.223, 953.721, -538.57, 824.664, -716.363, 833.689, -844.517, 801.199, -679.36, 800.297, -615.283, 748.854, -844.517, 497.057, -988.015, 485.324, -850.835, 472.689, -961.842, 155.01, -1151.37, 79.1996, -964.55, 111.69, -968.16, -157.255, -1076.46, -269.165, -955.525, -197.868, -844.517, -492.985, -968.16, -705.975, -962.745, -900.012, -929.352, -778.175, -834.59, -662.655, -648.675, -720.415, -607.16, -784.492, -613.478, -892.792, -593.623, -816.982, -496.153, -854.887, -431.173, -955.064, -528.643, -1016.43 )

[node name="Visuals" type="Node2D" parent="." index="1"]

[node name="Polygon2D2" type="Polygon2D" parent="Visuals" index="0"]

polygon = PoolVector2Array( 371.581, -917.012, 508.536, -890.289, 633.8, -933.713, 570.333, -865.236, 455.09, -843.524, 597.056, -786.737, 759.063, -826.822, 638.81, -753.334, 747.372, -644.772, 891.008, -661.474, 769.085, -603.017, 852.594, -502.807, 987.878, -496.126, 855.934, -471.073, 909.38, -370.862, 1046.33, -295.704, 921.071, -330.778, 972.847, -195.493, 1089.76, -81.9208, 976.187, -143.718, 992.889, -5.09241, 1083.08, 90.1079, 976.187, 28.3112, 981.198, 150.234, 1032.97, 235.414, 947.794, 168.606, 941.113, 307.232, 977.857, 464.229, 917.731, 353.997, 855.934, 509.324, 877.646, 673.001, 822.53, 516.004, 727.33, 686.363, 727.33, 865.072, 692.256, 699.724, 556.972, 821.648, 521.898, 988.666, 531.919, 814.967, 381.602, 911.837, 313.125, 1075.52, 341.518, 913.508, 159.468, 980.315, -102.75, 1326.04, -471.861, 1364.46, -712.367, 1239.19, -381.671, 1265.92, -67.6766, 1138.98, -116.112, 973.634, -508.605, 855.051, -724.058, 853.381, -947.862, 784.903, -709.026, 788.244, -642.219, 746.489, -854.332, 512.664, -1094.84, 482.601, -872.704, 465.899, -974.585, 166.936, -1271.88, 36.6621, -977.925, 101.799, -981.266, -142.047, -1144.94, -324.097, -971.245, -220.546, -866.023, -484.435, -984.606, -689.867, -962.894, -970.457, -912.788, -780.057, -849.321, -699.888, -704.016, -713.249, -622.177, -778.386, -617.166, -952.085, -593.783, -848.534, -525.306, -850.204, -440.127, -947.075 )
uv = PoolVector2Array(  )
color = Color( 0.00236511, 0.0400591, 0.605469, 1 )
vertex_colors = PoolColorArray(  )
offset = Vector2( 0, 0 )
antialiased = false
texture = null
texture_offset = Vector2( 0, 0 )
texture_scale = Vector2( 1, 1 )
texture_rotation_degrees = 0.0
invert_enable = false
invert_border = 100.0

[node name="Polygon2D" type="Polygon2D" parent="Visuals" index="1"]

polygon = PoolVector2Array( -614.37, -1097.3, 591.501, -1097.3, 574.92, -1047.56, 473.928, -961.641, 303.599, -893.81, -338.527, -890.796, -501.32, -976.714, -591.76, -1062.63 )
uv = PoolVector2Array(  )
color = Color( 0.371094, 0.371094, 0.371094, 1 )
vertex_colors = PoolColorArray(  )
offset = Vector2( 0, 0 )
antialiased = false
texture = null
texture_offset = Vector2( 0, 0 )
texture_scale = Vector2( 1, 1 )
texture_rotation_degrees = 0.0
invert_enable = false
invert_border = 100.0

[node name="Polygon2D3" type="Polygon2D" parent="Visuals" index="2"]

polygon = PoolVector2Array( -581.757, -1097.65, 554.695, -1097.65, 494.417, -1083.68, -524.42, -1084.42 )
uv = PoolVector2Array(  )
color = Color( 0.242188, 0.242188, 0.242188, 1 )
vertex_colors = PoolColorArray(  )
offset = Vector2( 0, 0 )
antialiased = false
texture = null
texture_offset = Vector2( 0, 0 )
texture_scale = Vector2( 1, 1 )
texture_rotation_degrees = 0.0
invert_enable = false
invert_border = 100.0

[node name="Polygon2D4" type="Polygon2D" parent="Visuals" index="3"]

polygon = PoolVector2Array( -357.103, -1043.22, -390.495, -1043.22, -411.253, -1020.66, -411.253, -993.58, -388.69, -973.725, -354.395, -972.823, -337.248, -988.165, -335.443, -1017.95 )
uv = PoolVector2Array(  )
color = Color( 0.785156, 0.785156, 0.785156, 1 )
vertex_colors = PoolColorArray(  )
offset = Vector2( 0, 0 )
antialiased = false
texture = null
texture_offset = Vector2( 0, 0 )
texture_scale = Vector2( 1, 1 )
texture_rotation_degrees = 0.0
invert_enable = false
invert_border = 100.0

[node name="Polygon2D7" type="Polygon2D" parent="Visuals" index="4"]

position = Vector2( 372.414, 6.58606 )
polygon = PoolVector2Array( -357.103, -1043.22, -390.495, -1043.22, -411.253, -1020.66, -411.253, -993.58, -388.69, -973.725, -354.395, -972.823, -337.248, -988.165, -335.443, -1017.95 )
uv = PoolVector2Array(  )
color = Color( 0.785156, 0.785156, 0.785156, 1 )
vertex_colors = PoolColorArray(  )
offset = Vector2( 0, 0 )
antialiased = false
texture = null
texture_offset = Vector2( 0, 0 )
texture_scale = Vector2( 1, 1 )
texture_rotation_degrees = 0.0
invert_enable = false
invert_border = 100.0

[node name="Polygon2D8" type="Polygon2D" parent="Visuals" index="5"]

position = Vector2( 755.007, -2.39496 )
polygon = PoolVector2Array( -357.103, -1043.22, -390.495, -1043.22, -411.253, -1020.66, -411.253, -993.58, -388.69, -973.725, -354.395, -972.823, -337.248, -988.165, -335.443, -1017.95 )
uv = PoolVector2Array(  )
color = Color( 0.785156, 0.785156, 0.785156, 1 )
vertex_colors = PoolColorArray(  )
offset = Vector2( 0, 0 )
antialiased = false
texture = null
texture_offset = Vector2( 0, 0 )
texture_scale = Vector2( 1, 1 )
texture_rotation_degrees = 0.0
invert_enable = false
invert_border = 100.0

[node name="Polygon2D5" type="Polygon2D" parent="Visuals" index="6"]

polygon = PoolVector2Array( -407.137, -1018.77, -388.158, -1039.5, -358.959, -1038.92, -339.396, -1016.43, -340.564, -989.28, -353.703, -977.308, -386.114, -977.892, -408.305, -994.827 )
uv = PoolVector2Array(  )
color = Color( 0.515625, 0.355011, 0.167175, 1 )
vertex_colors = PoolColorArray(  )
offset = Vector2( 0, 0 )
antialiased = false
texture = null
texture_offset = Vector2( 0, 0 )
texture_scale = Vector2( 1, 1 )
texture_rotation_degrees = 0.0
invert_enable = false
invert_border = 100.0

[node name="Polygon2D9" type="Polygon2D" parent="Visuals" index="7"]

position = Vector2( 371.217, 6.58612 )
polygon = PoolVector2Array( -407.137, -1018.77, -388.158, -1039.5, -358.959, -1038.92, -339.396, -1016.43, -340.564, -989.28, -353.703, -977.308, -386.114, -977.892, -408.305, -994.827 )
uv = PoolVector2Array(  )
color = Color( 0.515625, 0.355011, 0.167175, 1 )
vertex_colors = PoolColorArray(  )
offset = Vector2( 0, 0 )
antialiased = false
texture = null
texture_offset = Vector2( 0, 0 )
texture_scale = Vector2( 1, 1 )
texture_rotation_degrees = 0.0
invert_enable = false
invert_border = 100.0

[node name="Polygon2D10" type="Polygon2D" parent="Visuals" index="8"]

position = Vector2( 753.809, -1.19745 )
polygon = PoolVector2Array( -407.137, -1018.77, -388.158, -1039.5, -358.959, -1038.92, -339.396, -1016.43, -340.564, -989.28, -353.703, -977.308, -386.114, -977.892, -408.305, -994.827 )
uv = PoolVector2Array(  )
color = Color( 0.515625, 0.355011, 0.167175, 1 )
vertex_colors = PoolColorArray(  )
offset = Vector2( 0, 0 )
antialiased = false
texture = null
texture_offset = Vector2( 0, 0 )
texture_scale = Vector2( 1, 1 )
texture_rotation_degrees = 0.0
invert_enable = false
invert_border = 100.0

[node name="Polygon2D6" type="Polygon2D" parent="Visuals" index="9"]

polygon = PoolVector2Array( -384.654, -1033.08, -401.298, -1017.31, -402.174, -998.331, -383.778, -984.024, -358.083, -983.44, -345.82, -991.032, -344.652, -1014.39, -360.711, -1033.08 )
uv = PoolVector2Array(  )
color = Color( 0.10849, 0.925781, 0.868315, 1 )
vertex_colors = PoolColorArray(  )
offset = Vector2( 0, 0 )
antialiased = false
texture = null
texture_offset = Vector2( 0, 0 )
texture_scale = Vector2( 1, 1 )
texture_rotation_degrees = 0.0
invert_enable = false
invert_border = 100.0

[node name="Polygon2D11" type="Polygon2D" parent="Visuals" index="10"]

position = Vector2( 371.815, 5.98737 )
polygon = PoolVector2Array( -384.654, -1033.08, -401.298, -1017.31, -402.174, -998.331, -383.778, -984.024, -358.083, -983.44, -345.82, -991.032, -344.652, -1014.39, -360.711, -1033.08 )
uv = PoolVector2Array(  )
color = Color( 0.10849, 0.925781, 0.868315, 1 )
vertex_colors = PoolColorArray(  )
offset = Vector2( 0, 0 )
antialiased = false
texture = null
texture_offset = Vector2( 0, 0 )
texture_scale = Vector2( 1, 1 )
texture_rotation_degrees = 0.0
invert_enable = false
invert_border = 100.0

[node name="Polygon2D12" type="Polygon2D" parent="Visuals" index="11"]

position = Vector2( 753.809, -1.19745 )
polygon = PoolVector2Array( -384.654, -1033.08, -401.298, -1017.31, -402.174, -998.331, -383.778, -984.024, -358.083, -983.44, -345.82, -991.032, -344.652, -1014.39, -360.711, -1033.08 )
uv = PoolVector2Array(  )
color = Color( 0.10849, 0.925781, 0.868315, 1 )
vertex_colors = PoolColorArray(  )
offset = Vector2( 0, 0 )
antialiased = false
texture = null
texture_offset = Vector2( 0, 0 )
texture_scale = Vector2( 1, 1 )
texture_rotation_degrees = 0.0
invert_enable = false
invert_border = 100.0

[node name="Target1" type="Node2D" parent="." index="2"]

position = Vector2( 417.91, -1112.75 )

[node name="Target2" type="Node2D" parent="." index="3"]

position = Vector2( -624.347, 1304.08 )
rotation = 0.454182


